{
  "resourceType": "ConceptMap",
  "id": "elga-lebensmittelallergene-mapping",
  "text": {
    "status": "extensions",
    "div": "<div xmlns=\"http://www.w3.org/1999/xhtml\"><h2>elga-lebensmittelallergene-mapping (https://termgit.elga.gv.at/ConceptMap-elga-conceptmap-lebensmittelallergene)</h2><p>Mapping from https://termgit.elga.gv.at/ValueSet-elga-allergyorintoleranceagent to https://termgit.elga.gv.at/ValueSet-elga-lebensmittelallergene</p><p>ACTIVE. Published on 2022-10-27 by ELGA GmbH (ELGA GmbH: <a href=\"mailto:mailto:cda@elga.gv.at\">mailto:cda@elga.gv.at</a>). </p><div><p>Diese ConceptMap stellt ein Mapping von den Allergien aus SNOMED CT auf die Lebensmittelallergene gemäß EU Verordnung (https://eur-lex.europa.eu/legal-content/DE/TXT/HTML/?uri=CELEX:02011R1169-20180101&amp;from=DE#E0017) dar.</p>\n</div><br/><p><b>Group 1</b>Mapping from <code>https://termgit.elga.gv.at/CodeSystem-snomed-ct-auszug</code> to <code>https://termgit.elga.gv.at/CodeSystem-elga-lebensmittelallergene</code></p><table class=\"grid\"><tr><td><b>Source Code</b></td><td><b>Relationship</b></td><td><b>Target Code</b></td></tr><tr><td>105590001 (Substanzen)</td><td colspan=\"2\" style=\"background-color: #efefef\">(not mapped)</td></tr><tr><td>52454007 (Albumin)</td><td colspan=\"2\" style=\"background-color: #efefef\">(not mapped)</td></tr><tr><td>12503006 (Aluminium)</td><td colspan=\"2\" style=\"background-color: #efefef\">(not mapped)</td></tr><tr><td>256447001 (Amalgam)</td><td colspan=\"2\" style=\"background-color: #efefef\">(not mapped)</td></tr><tr><td>256303006 (Ambrosia-Pollen)</td><td colspan=\"2\" style=\"background-color: #efefef\">(not mapped)</td></tr><tr><td>228103005 (Antioxidantien in Lebensmitteln)</td><td colspan=\"2\" style=\"background-color: #efefef\">(not mapped)</td></tr><tr><td>735215001 (Apfel)</td><td colspan=\"2\" style=\"background-color: #efefef\">(not mapped)</td></tr><tr><td>735214002 (Aprikosen)</td><td colspan=\"2\" style=\"background-color: #efefef\">(not mapped)</td></tr><tr><td>11526002 (Aspartam)</td><td colspan=\"2\" style=\"background-color: #efefef\">(not mapped)</td></tr><tr><td>736031006 (Austern)</td><td><a href=\"http://hl7.org/fhir/R4B/codesystem-concept-map-equivalence.html#subsumes\" title=\"subsumes\">is subsumed by</a></td><td>EU0014 (Weichtiere)</td></tr><tr><td>256307007 (Bananen)</td><td colspan=\"2\" style=\"background-color: #efefef\">(not mapped)</td></tr><tr><td>256260009 (Baum- und Strauchpollen)</td><td colspan=\"2\" style=\"background-color: #efefef\">(not mapped)</td></tr><tr><td>256305004 (Baumharze)</td><td colspan=\"2\" style=\"background-color: #efefef\">(not mapped)</td></tr><tr><td>89889006 (Baumwollfasern)</td><td colspan=\"2\" style=\"background-color: #efefef\">(not mapped)</td></tr><tr><td>256293000 (Beifuß-Pollen)</td><td colspan=\"2\" style=\"background-color: #efefef\">(not mapped)</td></tr><tr><td>288328004 (Bienengifte)</td><td colspan=\"2\" style=\"background-color: #efefef\">(not mapped)</td></tr><tr><td>53410008 (Bier)</td><td><a href=\"http://hl7.org/fhir/R4B/codesystem-concept-map-equivalence.html#subsumes\" title=\"subsumes\">is subsumed by</a></td><td>EU0001 (Glutenhaltiges Getreide)</td></tr><tr><td>255640000 (Biozid (Desinfektionsmittel, Rattengifte, Holzschutzmittel))</td><td colspan=\"2\" style=\"background-color: #efefef\">(not mapped)</td></tr><tr><td>256262001 (Birken-Pollen)</td><td colspan=\"2\" style=\"background-color: #efefef\">(not mapped)</td></tr><tr><td>412061001 (Blaubeeren)</td><td colspan=\"2\" style=\"background-color: #efefef\">(not mapped)</td></tr><tr><td>256292005 (Blumen- und Kräuterpollen)</td><td colspan=\"2\" style=\"background-color: #efefef\">(not mapped)</td></tr><tr><td>256354006 (Bohnen)</td><td colspan=\"2\" style=\"background-color: #efefef\">(not mapped)</td></tr><tr><td>11894001 (Botulinumtoxin (BTX))</td><td colspan=\"2\" style=\"background-color: #efefef\">(not mapped)</td></tr><tr><td>21587009 (Brennnesseln)</td><td colspan=\"2\" style=\"background-color: #efefef\">(not mapped)</td></tr><tr><td>9021002 (Carbaryl-Insektizid)</td><td colspan=\"2\" style=\"background-color: #efefef\">(not mapped)</td></tr><tr><td>227493005 (Cashew-Kerne)</td><td><a href=\"http://hl7.org/fhir/R4B/codesystem-concept-map-equivalence.html#subsumes\" title=\"subsumes\">is subsumed by</a></td><td>EU0008 (Schalenfrüchte)</td></tr><tr><td>119417004 (Chlorkohlenwasserstoff-Insektizide)</td><td colspan=\"2\" style=\"background-color: #efefef\">(not mapped)</td></tr><tr><td>116549003 (Chlorkohlenwasserstoff-Pestizide)</td><td colspan=\"2\" style=\"background-color: #efefef\">(not mapped)</td></tr><tr><td>111070004 (Chrom)</td><td colspan=\"2\" style=\"background-color: #efefef\">(not mapped)</td></tr><tr><td>59351004 (Citrate)</td><td colspan=\"2\" style=\"background-color: #efefef\">(not mapped)</td></tr><tr><td>227395004 (Curry (Gewürz))</td><td colspan=\"2\" style=\"background-color: #efefef\">(not mapped)</td></tr><tr><td>387293003 (Dithranol)</td><td colspan=\"2\" style=\"background-color: #efefef\">(not mapped)</td></tr><tr><td>102263004 (Eier (verzehrbar))</td><td><a href=\"http://hl7.org/fhir/R4B/codesystem-concept-map-equivalence.html#subsumes\" title=\"subsumes\">is subsumed by</a></td><td>EU0003 (Eier)</td></tr><tr><td>256443002 (Eiklar)</td><td><a href=\"http://hl7.org/fhir/R4B/codesystem-concept-map-equivalence.html#subsumes\" title=\"subsumes\">is subsumed by</a></td><td>EU0003 (Eier)</td></tr><tr><td>303300008 (Eiproteine (Ovomukoid, Ovalbumin))</td><td><a href=\"http://hl7.org/fhir/R4B/codesystem-concept-map-equivalence.html#subsumes\" title=\"subsumes\">is subsumed by</a></td><td>EU0003 (Eier)</td></tr><tr><td>65345002 (Epoxidharze)</td><td colspan=\"2\" style=\"background-color: #efefef\">(not mapped)</td></tr><tr><td>102261002 (Erdbeeren)</td><td colspan=\"2\" style=\"background-color: #efefef\">(not mapped)</td></tr><tr><td>762952008 (Erdnüsse)</td><td><a href=\"http://hl7.org/fhir/R4B/codesystem-concept-map-equivalence.html#subsumes\" title=\"subsumes\">is subsumed by</a></td><td>EU0005 (Erdnüsse)</td></tr><tr><td>256261008 (Erlen-Pollen)</td><td colspan=\"2\" style=\"background-color: #efefef\">(not mapped)</td></tr><tr><td>12510000 (Eukalyptusöle)</td><td colspan=\"2\" style=\"background-color: #efefef\">(not mapped)</td></tr><tr><td>61789006 (Farbstoffe)</td><td colspan=\"2\" style=\"background-color: #efefef\">(not mapped)</td></tr><tr><td>256435007 (Federn)</td><td colspan=\"2\" style=\"background-color: #efefef\">(not mapped)</td></tr><tr><td>227425007 (Feigen)</td><td colspan=\"2\" style=\"background-color: #efefef\">(not mapped)</td></tr><tr><td>472731004 (Feigen-Pollen)</td><td colspan=\"2\" style=\"background-color: #efefef\">(not mapped)</td></tr><tr><td>735971005 (Fische)</td><td><a href=\"http://hl7.org/fhir/R4B/codesystem-concept-map-equivalence.html#subsumes\" title=\"subsumes\">is subsumed by</a></td><td>EU0004 (Fische)</td></tr><tr><td>28647000 (Fleisch)</td><td colspan=\"2\" style=\"background-color: #efefef\">(not mapped)</td></tr><tr><td>735972003 (Flusskrebse)</td><td><a href=\"http://hl7.org/fhir/R4B/codesystem-concept-map-equivalence.html#subsumes\" title=\"subsumes\">is subsumed by</a></td><td>EU0002 (Krebstiere)</td></tr><tr><td>111095003 (Formaldehyd)</td><td colspan=\"2\" style=\"background-color: #efefef\">(not mapped)</td></tr><tr><td>72511004 (Früchte)</td><td colspan=\"2\" style=\"background-color: #efefef\">(not mapped)</td></tr><tr><td>58202007 (Fruktose)</td><td colspan=\"2\" style=\"background-color: #efefef\">(not mapped)</td></tr><tr><td>43392006 (Gänsefüße)</td><td colspan=\"2\" style=\"background-color: #efefef\">(not mapped)</td></tr><tr><td>278840001 (Garnelen)</td><td><a href=\"http://hl7.org/fhir/R4B/codesystem-concept-map-equivalence.html#subsumes\" title=\"subsumes\">is subsumed by</a></td><td>EU0002 (Krebstiere)</td></tr><tr><td>28230009 (Geflügel)</td><td colspan=\"2\" style=\"background-color: #efefef\">(not mapped)</td></tr><tr><td>418266005 (gelbe Vaseline)</td><td colspan=\"2\" style=\"background-color: #efefef\">(not mapped)</td></tr><tr><td>80259003 (Geschmacksverstärker in Lebensmitteln)</td><td colspan=\"2\" style=\"background-color: #efefef\">(not mapped)</td></tr><tr><td>23182003 (Getreide)</td><td><a href=\"http://hl7.org/fhir/R4B/codesystem-concept-map-equivalence.html#subsumes\" title=\"subsumes\">is subsumed by</a></td><td>EU0001 (Glutenhaltiges Getreide)</td></tr><tr><td>260118006 (Glaskraut-Pollen)</td><td colspan=\"2\" style=\"background-color: #efefef\">(not mapped)</td></tr><tr><td>430503006 (Glutamat)</td><td colspan=\"2\" style=\"background-color: #efefef\">(not mapped)</td></tr><tr><td>89811004 (Gluten)</td><td><a href=\"http://hl7.org/fhir/R4B/codesystem-concept-map-equivalence.html#subsumes\" title=\"subsumes\">is subsumed by</a></td><td>EU0001 (Glutenhaltiges Getreide)</td></tr><tr><td>2309006 (Gold)</td><td colspan=\"2\" style=\"background-color: #efefef\">(not mapped)</td></tr><tr><td>422304003 (Gräser (Süßgräser))</td><td colspan=\"2\" style=\"background-color: #efefef\">(not mapped)</td></tr><tr><td>256277009 (Gras-Pollen)</td><td colspan=\"2\" style=\"background-color: #efefef\">(not mapped)</td></tr><tr><td>412145001 (Haarfärbemittel)</td><td colspan=\"2\" style=\"background-color: #efefef\">(not mapped)</td></tr><tr><td>418504009 (Hafer)</td><td><a href=\"http://hl7.org/fhir/R4B/codesystem-concept-map-equivalence.html#subsumes\" title=\"subsumes\">is subsumed by</a></td><td>EU0001 (Glutenhaltiges Getreide)</td></tr><tr><td>256353000 (Haselnüsse)</td><td><a href=\"http://hl7.org/fhir/R4B/codesystem-concept-map-equivalence.html#subsumes\" title=\"subsumes\">is subsumed by</a></td><td>EU0008 (Schalenfrüchte)</td></tr><tr><td>256263006 (Hasel-Pollen)</td><td colspan=\"2\" style=\"background-color: #efefef\">(not mapped)</td></tr><tr><td>128488006 (Hausstaub)</td><td colspan=\"2\" style=\"background-color: #efefef\">(not mapped)</td></tr><tr><td>406466009 (Hausstaub-Allergene)</td><td colspan=\"2\" style=\"background-color: #efefef\">(not mapped)</td></tr><tr><td>711093001 (Hausstaubmilben-Proteine)</td><td colspan=\"2\" style=\"background-color: #efefef\">(not mapped)</td></tr><tr><td>711322006 (Helminthen (Eingeweidewürmer)-Protein)</td><td colspan=\"2\" style=\"background-color: #efefef\">(not mapped)</td></tr><tr><td>227444000 (Himbeeren)</td><td colspan=\"2\" style=\"background-color: #efefef\">(not mapped)</td></tr><tr><td>14402002 (Holz)</td><td colspan=\"2\" style=\"background-color: #efefef\">(not mapped)</td></tr><tr><td>227313005 (Hülsenfrüchte)</td><td colspan=\"2\" style=\"background-color: #efefef\">(not mapped)</td></tr><tr><td>736162008 (Hummer)</td><td><a href=\"http://hl7.org/fhir/R4B/codesystem-concept-map-equivalence.html#subsumes\" title=\"subsumes\">is subsumed by</a></td><td>EU0002 (Krebstiere)</td></tr><tr><td>260154005 (Hunde-Hautschuppen)</td><td colspan=\"2\" style=\"background-color: #efefef\">(not mapped)</td></tr><tr><td>227400003 (Ingwer)</td><td colspan=\"2\" style=\"background-color: #efefef\">(not mapped)</td></tr><tr><td>406470001 (Insekten-Allergene)</td><td colspan=\"2\" style=\"background-color: #efefef\">(not mapped)</td></tr><tr><td>280939008 (Insektengifte)</td><td colspan=\"2\" style=\"background-color: #efefef\">(not mapped)</td></tr><tr><td>260174003 (Kabeljaue)</td><td><a href=\"http://hl7.org/fhir/R4B/codesystem-concept-map-equivalence.html#subsumes\" title=\"subsumes\">is subsumed by</a></td><td>EU0004 (Fische)</td></tr><tr><td>80237000 (Kakaobutter)</td><td colspan=\"2\" style=\"background-color: #efefef\">(not mapped)</td></tr><tr><td>14241002 (Kakerlaken)</td><td colspan=\"2\" style=\"background-color: #efefef\">(not mapped)</td></tr><tr><td>74774004 (Kälteurtikaria)</td><td colspan=\"2\" style=\"background-color: #efefef\">(not mapped)</td></tr><tr><td>88818001 (Kaninchen)</td><td colspan=\"2\" style=\"background-color: #efefef\">(not mapped)</td></tr><tr><td>412153009 (Kaninchen-Hautschuppen)</td><td colspan=\"2\" style=\"background-color: #efefef\">(not mapped)</td></tr><tr><td>256319004 (Karotten)</td><td colspan=\"2\" style=\"background-color: #efefef\">(not mapped)</td></tr><tr><td>735053000 (Kartoffeln)</td><td colspan=\"2\" style=\"background-color: #efefef\">(not mapped)</td></tr><tr><td>102264005 (Käse)</td><td><a href=\"http://hl7.org/fhir/R4B/codesystem-concept-map-equivalence.html#subsumes\" title=\"subsumes\">is subsumed by</a></td><td>EU0007 (Milch)</td></tr><tr><td>260152009 (Katze-Hautschuppen)</td><td colspan=\"2\" style=\"background-color: #efefef\">(not mapped)</td></tr><tr><td>43230003 (Kautschuk)</td><td colspan=\"2\" style=\"background-color: #efefef\">(not mapped)</td></tr><tr><td>735248001 (Kirschen)</td><td colspan=\"2\" style=\"background-color: #efefef\">(not mapped)</td></tr><tr><td>260176001 (Kiwi)</td><td colspan=\"2\" style=\"background-color: #efefef\">(not mapped)</td></tr><tr><td>57126000 (Klebstoff)</td><td colspan=\"2\" style=\"background-color: #efefef\">(not mapped)</td></tr><tr><td>418920007 (Klebstoffe)</td><td colspan=\"2\" style=\"background-color: #efefef\">(not mapped)</td></tr><tr><td>735030001 (Knoblauch)</td><td colspan=\"2\" style=\"background-color: #efefef\">(not mapped)</td></tr><tr><td>54808007 (Kobalt)</td><td colspan=\"2\" style=\"background-color: #efefef\">(not mapped)</td></tr><tr><td>735211005 (Kokusnüsse)</td><td colspan=\"2\" style=\"background-color: #efefef\">(not mapped)</td></tr><tr><td>255840003 (Kolophonium)</td><td colspan=\"2\" style=\"background-color: #efefef\">(not mapped)</td></tr><tr><td>51386004 (Konservierungsmittel in Lebensmitteln)</td><td colspan=\"2\" style=\"background-color: #efefef\">(not mapped)</td></tr><tr><td>406473004 (Kontakt-Allergene)</td><td colspan=\"2\" style=\"background-color: #efefef\">(not mapped)</td></tr><tr><td>264331002 (Körner (Getreide, Pseudogetreide, Hülsenfrüchte, Sonnenblumen))</td><td><a href=\"http://hl7.org/fhir/R4B/codesystem-concept-map-equivalence.html#subsumes\" title=\"subsumes\">is subsumed by</a></td><td>EU0001 (Glutenhaltiges Getreide)</td></tr><tr><td>289122001 (Kosmetika)</td><td colspan=\"2\" style=\"background-color: #efefef\">(not mapped)</td></tr><tr><td>736159005 (Krabben)</td><td><a href=\"http://hl7.org/fhir/R4B/codesystem-concept-map-equivalence.html#subsumes\" title=\"subsumes\">is subsumed by</a></td><td>EU0002 (Krebstiere)</td></tr><tr><td>227374009 (Kräuter und Gewürze)</td><td colspan=\"2\" style=\"background-color: #efefef\">(not mapped)</td></tr><tr><td>421133009 (Krustentiere)</td><td><a href=\"http://hl7.org/fhir/R4B/codesystem-concept-map-equivalence.html#subsumes\" title=\"subsumes\">is subsumed by</a></td><td>EU0002 (Krebstiere)</td></tr><tr><td>264295007 (Kuhmilch-Proteine)</td><td><a href=\"http://hl7.org/fhir/R4B/codesystem-concept-map-equivalence.html#subsumes\" title=\"subsumes\">is subsumed by</a></td><td>EU0007 (Milch)</td></tr><tr><td>66925006 (Kupfer)</td><td colspan=\"2\" style=\"background-color: #efefef\">(not mapped)</td></tr><tr><td>47703008 (Laktose)</td><td><a href=\"http://hl7.org/fhir/R4B/codesystem-concept-map-equivalence.html#subsumes\" title=\"subsumes\">is subsumed by</a></td><td>EU0007 (Milch)</td></tr><tr><td>772245002 (Lanolin-Alkohol)</td><td colspan=\"2\" style=\"background-color: #efefef\">(not mapped)</td></tr><tr><td>111088007 (Latex)</td><td colspan=\"2\" style=\"background-color: #efefef\">(not mapped)</td></tr><tr><td>406465008 (Lebensmittel-Allergene)</td><td colspan=\"2\" style=\"background-color: #efefef\">(not mapped)</td></tr><tr><td>59533004 (Lebensmittel-Zusatzstoffe)</td><td colspan=\"2\" style=\"background-color: #efefef\">(not mapped)</td></tr><tr><td>19627002 (Leder)</td><td colspan=\"2\" style=\"background-color: #efefef\">(not mapped)</td></tr><tr><td>115664001 (Photoallergische Dermatitis)</td><td colspan=\"2\" style=\"background-color: #efefef\">(not mapped)</td></tr><tr><td>227430006 (Limetten)</td><td colspan=\"2\" style=\"background-color: #efefef\">(not mapped)</td></tr><tr><td>63876004 (Lupinen)</td><td><a href=\"http://hl7.org/fhir/R4B/codesystem-concept-map-equivalence.html#subsumes\" title=\"subsumes\">is subsumed by</a></td><td>EU0013 (Lupinen)</td></tr><tr><td>412357001 (Mais)</td><td colspan=\"2\" style=\"background-color: #efefef\">(not mapped)</td></tr><tr><td>391737006 (Mandelöle)</td><td><a href=\"http://hl7.org/fhir/R4B/codesystem-concept-map-equivalence.html#subsumes\" title=\"subsumes\">is subsumed by</a></td><td>EU0008 (Schalenfrüchte)</td></tr><tr><td>260179008 (Mango)</td><td colspan=\"2\" style=\"background-color: #efefef\">(not mapped)</td></tr><tr><td>256419000 (Maus-Epithelien)</td><td colspan=\"2\" style=\"background-color: #efefef\">(not mapped)</td></tr><tr><td>260156007 (Maus-Urin-Proteine)</td><td colspan=\"2\" style=\"background-color: #efefef\">(not mapped)</td></tr><tr><td>44027008 (Meeresfrüchte)</td><td><a href=\"http://hl7.org/fhir/R4B/codesystem-concept-map-equivalence.html#subsumes\" title=\"subsumes\">is subsumed by</a></td><td>EU0014 (Weichtiere)</td></tr><tr><td>63766005 (Mehl)</td><td><a href=\"http://hl7.org/fhir/R4B/codesystem-concept-map-equivalence.html#subsumes\" title=\"subsumes\">is subsumed by</a></td><td>EU0001 (Glutenhaltiges Getreide)</td></tr><tr><td>260177005 (Melonen)</td><td colspan=\"2\" style=\"background-color: #efefef\">(not mapped)</td></tr><tr><td>261243003 (Messing)</td><td colspan=\"2\" style=\"background-color: #efefef\">(not mapped)</td></tr><tr><td>2799001 (Methylbenzethoniumchlorid)</td><td colspan=\"2\" style=\"background-color: #efefef\">(not mapped)</td></tr><tr><td>70813002 (Milch)</td><td><a href=\"http://hl7.org/fhir/R4B/codesystem-concept-map-equivalence.html#subsumes\" title=\"subsumes\">is subsumed by</a></td><td>EU0007 (Milch)</td></tr><tr><td>255667006 (Mineralöle (Paraffinöl, Petroleum, ?))</td><td colspan=\"2\" style=\"background-color: #efefef\">(not mapped)</td></tr><tr><td>226760005 (Molkereiprodukte)</td><td><a href=\"http://hl7.org/fhir/R4B/codesystem-concept-map-equivalence.html#subsumes\" title=\"subsumes\">is subsumed by</a></td><td>EU0007 (Milch)</td></tr><tr><td>115589000 (Monoethanolamin)</td><td colspan=\"2\" style=\"background-color: #efefef\">(not mapped)</td></tr><tr><td>736030007 (Muscheln (Venusmuschel, ?))</td><td><a href=\"http://hl7.org/fhir/R4B/codesystem-concept-map-equivalence.html#subsumes\" title=\"subsumes\">is subsumed by</a></td><td>EU0014 (Weichtiere)</td></tr><tr><td>77188000 (Muscheln (Miesmuschel, ...))</td><td><a href=\"http://hl7.org/fhir/R4B/codesystem-concept-map-equivalence.html#subsumes\" title=\"subsumes\">is subsumed by</a></td><td>EU0014 (Weichtiere)</td></tr><tr><td>735046009 (Muskatnüsse)</td><td><a href=\"http://hl7.org/fhir/R4B/codesystem-concept-map-equivalence.html#subsumes\" title=\"subsumes\">is subsumed by</a></td><td>EU0008 (Schalenfrüchte)</td></tr><tr><td>412160003 (Nahtmaterial-Allergene)</td><td colspan=\"2\" style=\"background-color: #efefef\">(not mapped)</td></tr><tr><td>227389000 (Nelken)</td><td colspan=\"2\" style=\"background-color: #efefef\">(not mapped)</td></tr><tr><td>33396006 (Nickel)</td><td colspan=\"2\" style=\"background-color: #efefef\">(not mapped)</td></tr><tr><td>13577000 (Nüsse)</td><td><a href=\"http://hl7.org/fhir/R4B/codesystem-concept-map-equivalence.html#subsumes\" title=\"subsumes\">is subsumed by</a></td><td>EU0008 (Schalenfrüchte)</td></tr><tr><td>230034002 (Nüsse und Ölsamen (Ölsaat))</td><td><a href=\"http://hl7.org/fhir/R4B/codesystem-concept-map-equivalence.html#subsumes\" title=\"subsumes\">is subsumed by</a></td><td>EU0008 (Schalenfrüchte)</td></tr><tr><td>735979007 (Oktopusse)</td><td><a href=\"http://hl7.org/fhir/R4B/codesystem-concept-map-equivalence.html#subsumes\" title=\"subsumes\">is subsumed by</a></td><td>EU0014 (Weichtiere)</td></tr><tr><td>260126003 (Oliven-Pollen)</td><td colspan=\"2\" style=\"background-color: #efefef\">(not mapped)</td></tr><tr><td>406774009 (Omega-3-Fettsäuren aus Fisch)</td><td><a href=\"http://hl7.org/fhir/R4B/codesystem-concept-map-equivalence.html#subsumes\" title=\"subsumes\">is subsumed by</a></td><td>EU0004 (Fische)</td></tr><tr><td>256306003 (Orangen)</td><td colspan=\"2\" style=\"background-color: #efefef\">(not mapped)</td></tr><tr><td>712720004 (Pappel-Pollen)</td><td colspan=\"2\" style=\"background-color: #efefef\">(not mapped)</td></tr><tr><td>227408005 (Paprika)</td><td colspan=\"2\" style=\"background-color: #efefef\">(not mapped)</td></tr><tr><td>734881000 (Paradeiser)</td><td colspan=\"2\" style=\"background-color: #efefef\">(not mapped)</td></tr><tr><td>418785009 (Parfum)</td><td colspan=\"2\" style=\"background-color: #efefef\">(not mapped)</td></tr><tr><td>410853002 (Perfluor Chemikalien)</td><td colspan=\"2\" style=\"background-color: #efefef\">(not mapped)</td></tr><tr><td>255842006 (Perubalsam)</td><td colspan=\"2\" style=\"background-color: #efefef\">(not mapped)</td></tr><tr><td>59545008 (Pestizide)</td><td colspan=\"2\" style=\"background-color: #efefef\">(not mapped)</td></tr><tr><td>412066006 (Pfeffer)</td><td colspan=\"2\" style=\"background-color: #efefef\">(not mapped)</td></tr><tr><td>256417003 (Pferde-Hautschuppen)</td><td colspan=\"2\" style=\"background-color: #efefef\">(not mapped)</td></tr><tr><td>735049002 (Pfirsich)</td><td colspan=\"2\" style=\"background-color: #efefef\">(not mapped)</td></tr><tr><td>116637007 (Pilz-Antigene (Einzellige Pilze))</td><td colspan=\"2\" style=\"background-color: #efefef\">(not mapped)</td></tr><tr><td>735045008 (Pilze (Speise- und Giftpilze))</td><td colspan=\"2\" style=\"background-color: #efefef\">(not mapped)</td></tr><tr><td>227511008 (Pinienkerne)</td><td colspan=\"2\" style=\"background-color: #efefef\">(not mapped)</td></tr><tr><td>227512001 (Pistazien)</td><td><a href=\"http://hl7.org/fhir/R4B/codesystem-concept-map-equivalence.html#subsumes\" title=\"subsumes\">is subsumed by</a></td><td>EU0008 (Schalenfrüchte)</td></tr><tr><td>387398009 (Podophyllum Harze)</td><td colspan=\"2\" style=\"background-color: #efefef\">(not mapped)</td></tr><tr><td>256259004 (Pollen)</td><td colspan=\"2\" style=\"background-color: #efefef\">(not mapped)</td></tr><tr><td>256504004 (Polykarbonat (Zahnärztlicher Werkstoff))</td><td colspan=\"2\" style=\"background-color: #efefef\">(not mapped)</td></tr><tr><td>83619009 (Polyvinylalkohol)</td><td colspan=\"2\" style=\"background-color: #efefef\">(not mapped)</td></tr><tr><td>255970007 (Propolis)</td><td colspan=\"2\" style=\"background-color: #efefef\">(not mapped)</td></tr><tr><td>311846002 (Pyrethroid-Insektizide)</td><td colspan=\"2\" style=\"background-color: #efefef\">(not mapped)</td></tr><tr><td>45262002 (Quecksilber)</td><td colspan=\"2\" style=\"background-color: #efefef\">(not mapped)</td></tr><tr><td>67324005 (Reis)</td><td colspan=\"2\" style=\"background-color: #efefef\">(not mapped)</td></tr><tr><td>260153004 (Rinder-Hautschuppen)</td><td colspan=\"2\" style=\"background-color: #efefef\">(not mapped)</td></tr><tr><td>412068007 (Roggen)</td><td><a href=\"http://hl7.org/fhir/R4B/codesystem-concept-map-equivalence.html#subsumes\" title=\"subsumes\">is subsumed by</a></td><td>EU0001 (Glutenhaltiges Getreide)</td></tr><tr><td>226915003 (rotes Fleisch)</td><td colspan=\"2\" style=\"background-color: #efefef\">(not mapped)</td></tr><tr><td>264337003 (Samen)</td><td colspan=\"2\" style=\"background-color: #efefef\">(not mapped)</td></tr><tr><td>128489003 (Sand)</td><td colspan=\"2\" style=\"background-color: #efefef\">(not mapped)</td></tr><tr><td>726764009 (Saubohnen)</td><td colspan=\"2\" style=\"background-color: #efefef\">(not mapped)</td></tr><tr><td>735029006 (Schalentiere)</td><td><a href=\"http://hl7.org/fhir/R4B/codesystem-concept-map-equivalence.html#subsumes\" title=\"subsumes\">is subsumed by</a></td><td>EU0014 (Weichtiere)</td></tr><tr><td>722071008 (Schimmelpilz-Antigene)</td><td colspan=\"2\" style=\"background-color: #efefef\">(not mapped)</td></tr><tr><td>15838006 (Schnecken)</td><td><a href=\"http://hl7.org/fhir/R4B/codesystem-concept-map-equivalence.html#subsumes\" title=\"subsumes\">is subsumed by</a></td><td>EU0014 (Weichtiere)</td></tr><tr><td>102262009 (Schokolade)</td><td colspan=\"2\" style=\"background-color: #efefef\">(not mapped)</td></tr><tr><td>226934003 (Schweinefleisch)</td><td colspan=\"2\" style=\"background-color: #efefef\">(not mapped)</td></tr><tr><td>412156001 (Seide)</td><td colspan=\"2\" style=\"background-color: #efefef\">(not mapped)</td></tr><tr><td>14423008 (Selbstklebende Bandagen)</td><td colspan=\"2\" style=\"background-color: #efefef\">(not mapped)</td></tr><tr><td>256326004 (Sellerie)</td><td><a href=\"http://hl7.org/fhir/R4B/codesystem-concept-map-equivalence.html#subsumes\" title=\"subsumes\">is subsumed by</a></td><td>EU0009 (Sellerie)</td></tr><tr><td>51905005 (Senf)</td><td><a href=\"http://hl7.org/fhir/R4B/codesystem-concept-map-equivalence.html#subsumes\" title=\"subsumes\">is subsumed by</a></td><td>EU0010 (Senf)</td></tr><tr><td>260167008 (Sesam-Samen)</td><td><a href=\"http://hl7.org/fhir/R4B/codesystem-concept-map-equivalence.html#subsumes\" title=\"subsumes\">is subsumed by</a></td><td>EU0011 (Sesamsamen)</td></tr><tr><td>41967008 (Silber)</td><td colspan=\"2\" style=\"background-color: #efefef\">(not mapped)</td></tr><tr><td>13652007 (Silikon)</td><td colspan=\"2\" style=\"background-color: #efefef\">(not mapped)</td></tr><tr><td>303314008 (Skorpiongifte)</td><td colspan=\"2\" style=\"background-color: #efefef\">(not mapped)</td></tr><tr><td>256355007 (Sojabohnen)</td><td><a href=\"http://hl7.org/fhir/R4B/codesystem-concept-map-equivalence.html#subsumes\" title=\"subsumes\">is subsumed by</a></td><td>EU0006 (Sojabohnen)</td></tr><tr><td>7791007 (Sojaproteine)</td><td><a href=\"http://hl7.org/fhir/R4B/codesystem-concept-map-equivalence.html#subsumes\" title=\"subsumes\">is subsumed by</a></td><td>EU0006 (Sojabohnen)</td></tr><tr><td>734846002 (Sperma)</td><td colspan=\"2\" style=\"background-color: #efefef\">(not mapped)</td></tr><tr><td>303315009 (Spinnengifte)</td><td colspan=\"2\" style=\"background-color: #efefef\">(not mapped)</td></tr><tr><td>227259009 (Spitzwegerich)</td><td colspan=\"2\" style=\"background-color: #efefef\">(not mapped)</td></tr><tr><td>33008008 (Staub)</td><td colspan=\"2\" style=\"background-color: #efefef\">(not mapped)</td></tr><tr><td>767406000 (Sulfite und Sulfitderivate)</td><td colspan=\"2\" style=\"background-color: #efefef\">(not mapped)</td></tr><tr><td>415710007 (Terpene)</td><td colspan=\"2\" style=\"background-color: #efefef\">(not mapped)</td></tr><tr><td>256245006 (Textilien)</td><td colspan=\"2\" style=\"background-color: #efefef\">(not mapped)</td></tr><tr><td>227144008 (Thunfische)</td><td><a href=\"http://hl7.org/fhir/R4B/codesystem-concept-map-equivalence.html#subsumes\" title=\"subsumes\">is subsumed by</a></td><td>EU0004 (Fische)</td></tr><tr><td>406472009 (Tierepithelien)</td><td colspan=\"2\" style=\"background-color: #efefef\">(not mapped)</td></tr><tr><td>276310004 (Tierhaare)</td><td colspan=\"2\" style=\"background-color: #efefef\">(not mapped)</td></tr><tr><td>264287008 (Tier-Hautschuppen)</td><td colspan=\"2\" style=\"background-color: #efefef\">(not mapped)</td></tr><tr><td>735006003 (Kalmare)</td><td><a href=\"http://hl7.org/fhir/R4B/codesystem-concept-map-equivalence.html#subsumes\" title=\"subsumes\">is subsumed by</a></td><td>EU0014 (Weichtiere)</td></tr><tr><td>38946001 (Tintenfische)</td><td><a href=\"http://hl7.org/fhir/R4B/codesystem-concept-map-equivalence.html#subsumes\" title=\"subsumes\">is subsumed by</a></td><td>EU0014 (Weichtiere)</td></tr><tr><td>419604006 (Unkräuter-Pollen (Kamille, Chrysanthemen, Löwenzahn, Japanischer Hopfen, Lupine, Margerite, Raps))</td><td colspan=\"2\" style=\"background-color: #efefef\">(not mapped)</td></tr><tr><td>412070003 (Vanille)</td><td colspan=\"2\" style=\"background-color: #efefef\">(not mapped)</td></tr><tr><td>256352005 (Walnüsse)</td><td><a href=\"http://hl7.org/fhir/R4B/codesystem-concept-map-equivalence.html#subsumes\" title=\"subsumes\">is subsumed by</a></td><td>EU0008 (Schalenfrüchte)</td></tr><tr><td>419420009 (Wassermelonen)</td><td colspan=\"2\" style=\"background-color: #efefef\">(not mapped)</td></tr><tr><td>419633007 (weiße Vaseline)</td><td colspan=\"2\" style=\"background-color: #efefef\">(not mapped)</td></tr><tr><td>412071004 (Weizen)</td><td><a href=\"http://hl7.org/fhir/R4B/codesystem-concept-map-equivalence.html#subsumes\" title=\"subsumes\">is subsumed by</a></td><td>EU0001 (Glutenhaltiges Getreide)</td></tr><tr><td>256440004 (Wespengifte)</td><td colspan=\"2\" style=\"background-color: #efefef\">(not mapped)</td></tr><tr><td>412161004 (Wolle)</td><td colspan=\"2\" style=\"background-color: #efefef\">(not mapped)</td></tr><tr><td>42416001 (Wollfett)</td><td colspan=\"2\" style=\"background-color: #efefef\">(not mapped)</td></tr><tr><td>59334006 (Zement)</td><td colspan=\"2\" style=\"background-color: #efefef\">(not mapped)</td></tr><tr><td>227388008 (Zimt)</td><td colspan=\"2\" style=\"background-color: #efefef\">(not mapped)</td></tr><tr><td>735340006 (Zitronen)</td><td colspan=\"2\" style=\"background-color: #efefef\">(not mapped)</td></tr><tr><td>102259006 (Zitrusfrüchte)</td><td colspan=\"2\" style=\"background-color: #efefef\">(not mapped)</td></tr><tr><td>735047000 (Zwiebeln)</td><td colspan=\"2\" style=\"background-color: #efefef\">(not mapped)</td></tr><tr><td>289949002 (Zypressen-Pollen)</td><td colspan=\"2\" style=\"background-color: #efefef\">(not mapped)</td></tr></table></div>"
  },
  "url": "https://termgit.elga.gv.at/ConceptMap-elga-conceptmap-lebensmittelallergene",
  "version": "1.0.0+20221027",
  "name": "elga-lebensmittelallergene-mapping",
  "title": "ELGA Lebensmittelallergene Mapping",
  "status": "active",
  "date": "2022-10-27",
  "publisher": "ELGA GmbH",
  "contact": [
    {
      "name": "ELGA GmbH",
      "telecom": [
        {
          "system": "email",
          "value": "mailto:cda@elga.gv.at"
        }
      ]
    }
  ],
  "description": "Diese ConceptMap stellt ein Mapping von den Allergien aus SNOMED CT auf die Lebensmittelallergene gemäß EU Verordnung (https://eur-lex.europa.eu/legal-content/DE/TXT/HTML/?uri=CELEX:02011R1169-20180101&from=DE#E0017) dar.",
  "sourceUri": "https://termgit.elga.gv.at/ValueSet-elga-allergyorintoleranceagent",
  "targetUri": "https://termgit.elga.gv.at/ValueSet-elga-lebensmittelallergene",
  "group": [
    {
      "source": "https://termgit.elga.gv.at/CodeSystem-snomed-ct-auszug",
      "target": "https://termgit.elga.gv.at/CodeSystem-elga-lebensmittelallergene",
      "element": [
        {
          "code": "105590001",
          "display": "Substanzen",
          "target": [
            {
              "equivalence": "unmatched"
            }
          ]
        },
        {
          "code": "52454007",
          "display": "Albumin",
          "target": [
            {
              "equivalence": "unmatched"
            }
          ]
        },
        {
          "code": "12503006",
          "display": "Aluminium",
          "target": [
            {
              "equivalence": "unmatched"
            }
          ]
        },
        {
          "code": "256447001",
          "display": "Amalgam",
          "target": [
            {
              "equivalence": "unmatched"
            }
          ]
        },
        {
          "code": "256303006",
          "display": "Ambrosia-Pollen",
          "target": [
            {
              "equivalence": "unmatched"
            }
          ]
        },
        {
          "code": "228103005",
          "display": "Antioxidantien in Lebensmitteln",
          "target": [
            {
              "equivalence": "unmatched"
            }
          ]
        },
        {
          "code": "735215001",
          "display": "Apfel",
          "target": [
            {
              "equivalence": "unmatched"
            }
          ]
        },
        {
          "code": "735214002",
          "display": "Aprikosen",
          "target": [
            {
              "equivalence": "unmatched"
            }
          ]
        },
        {
          "code": "11526002",
          "display": "Aspartam",
          "target": [
            {
              "equivalence": "unmatched"
            }
          ]
        },
        {
          "code": "736031006",
          "display": "Austern",
          "target": [
            {
              "code": "EU0014",
              "display": "Weichtiere",
              "equivalence": "subsumes"
            }
          ]
        },
        {
          "code": "256307007",
          "display": "Bananen",
          "target": [
            {
              "equivalence": "unmatched"
            }
          ]
        },
        {
          "code": "256260009",
          "display": "Baum- und Strauchpollen",
          "target": [
            {
              "equivalence": "unmatched"
            }
          ]
        },
        {
          "code": "256305004",
          "display": "Baumharze",
          "target": [
            {
              "equivalence": "unmatched"
            }
          ]
        },
        {
          "code": "89889006",
          "display": "Baumwollfasern",
          "target": [
            {
              "equivalence": "unmatched"
            }
          ]
        },
        {
          "code": "256293000",
          "display": "Beifuß-Pollen",
          "target": [
            {
              "equivalence": "unmatched"
            }
          ]
        },
        {
          "code": "288328004",
          "display": "Bienengifte",
          "target": [
            {
              "equivalence": "unmatched"
            }
          ]
        },
        {
          "code": "53410008",
          "display": "Bier",
          "target": [
            {
              "code": "EU0001",
              "display": "Glutenhaltiges Getreide",
              "equivalence": "subsumes"
            }
          ]
        },
        {
          "code": "255640000",
          "display": "Biozid (Desinfektionsmittel, Rattengifte, Holzschutzmittel)",
          "target": [
            {
              "equivalence": "unmatched"
            }
          ]
        },
        {
          "code": "256262001",
          "display": "Birken-Pollen",
          "target": [
            {
              "equivalence": "unmatched"
            }
          ]
        },
        {
          "code": "412061001",
          "display": "Blaubeeren",
          "target": [
            {
              "equivalence": "unmatched"
            }
          ]
        },
        {
          "code": "256292005",
          "display": "Blumen- und Kräuterpollen",
          "target": [
            {
              "equivalence": "unmatched"
            }
          ]
        },
        {
          "code": "256354006",
          "display": "Bohnen",
          "target": [
            {
              "equivalence": "unmatched"
            }
          ]
        },
        {
          "code": "11894001",
          "display": "Botulinumtoxin (BTX)",
          "target": [
            {
              "equivalence": "unmatched"
            }
          ]
        },
        {
          "code": "21587009",
          "display": "Brennnesseln",
          "target": [
            {
              "equivalence": "unmatched"
            }
          ]
        },
        {
          "code": "9021002",
          "display": "Carbaryl-Insektizid",
          "target": [
            {
              "equivalence": "unmatched"
            }
          ]
        },
        {
          "code": "227493005",
          "display": "Cashew-Kerne",
          "target": [
            {
              "code": "EU0008",
              "display": "Schalenfrüchte",
              "equivalence": "subsumes"
            }
          ]
        },
        {
          "code": "119417004",
          "display": "Chlorkohlenwasserstoff-Insektizide",
          "target": [
            {
              "equivalence": "unmatched"
            }
          ]
        },
        {
          "code": "116549003",
          "display": "Chlorkohlenwasserstoff-Pestizide",
          "target": [
            {
              "equivalence": "unmatched"
            }
          ]
        },
        {
          "code": "111070004",
          "display": "Chrom",
          "target": [
            {
              "equivalence": "unmatched"
            }
          ]
        },
        {
          "code": "59351004",
          "display": "Citrate",
          "target": [
            {
              "equivalence": "unmatched"
            }
          ]
        },
        {
          "code": "227395004",
          "display": "Curry (Gewürz)",
          "target": [
            {
              "equivalence": "unmatched"
            }
          ]
        },
        {
          "code": "387293003",
          "display": "Dithranol",
          "target": [
            {
              "equivalence": "unmatched"
            }
          ]
        },
        {
          "code": "102263004",
          "display": "Eier (verzehrbar)",
          "target": [
            {
              "code": "EU0003",
              "display": "Eier",
              "equivalence": "subsumes"
            }
          ]
        },
        {
          "code": "256443002",
          "display": "Eiklar",
          "target": [
            {
              "code": "EU0003",
              "display": "Eier",
              "equivalence": "subsumes"
            }
          ]
        },
        {
          "code": "303300008",
          "display": "Eiproteine (Ovomukoid, Ovalbumin)",
          "target": [
            {
              "code": "EU0003",
              "display": "Eier",
              "equivalence": "subsumes"
            }
          ]
        },
        {
          "code": "65345002",
          "display": "Epoxidharze",
          "target": [
            {
              "equivalence": "unmatched"
            }
          ]
        },
        {
          "code": "102261002",
          "display": "Erdbeeren",
          "target": [
            {
              "equivalence": "unmatched"
            }
          ]
        },
        {
          "code": "762952008",
          "display": "Erdnüsse",
          "target": [
            {
              "code": "EU0005",
              "display": "Erdnüsse",
              "equivalence": "subsumes"
            }
          ]
        },
        {
          "code": "256261008",
          "display": "Erlen-Pollen",
          "target": [
            {
              "equivalence": "unmatched"
            }
          ]
        },
        {
          "code": "12510000",
          "display": "Eukalyptusöle",
          "target": [
            {
              "equivalence": "unmatched"
            }
          ]
        },
        {
          "code": "61789006",
          "display": "Farbstoffe",
          "target": [
            {
              "equivalence": "unmatched"
            }
          ]
        },
        {
          "code": "256435007",
          "display": "Federn",
          "target": [
            {
              "equivalence": "unmatched"
            }
          ]
        },
        {
          "code": "227425007",
          "display": "Feigen",
          "target": [
            {
              "equivalence": "unmatched"
            }
          ]
        },
        {
          "code": "472731004",
          "display": "Feigen-Pollen",
          "target": [
            {
              "equivalence": "unmatched"
            }
          ]
        },
        {
          "code": "735971005",
          "display": "Fische",
          "target": [
            {
              "code": "EU0004",
              "display": "Fische",
              "equivalence": "subsumes"
            }
          ]
        },
        {
          "code": "28647000",
          "display": "Fleisch",
          "target": [
            {
              "equivalence": "unmatched"
            }
          ]
        },
        {
          "code": "735972003",
          "display": "Flusskrebse",
          "target": [
            {
              "code": "EU0002",
              "display": "Krebstiere",
              "equivalence": "subsumes"
            }
          ]
        },
        {
          "code": "111095003",
          "display": "Formaldehyd",
          "target": [
            {
              "equivalence": "unmatched"
            }
          ]
        },
        {
          "code": "72511004",
          "display": "Früchte",
          "target": [
            {
              "equivalence": "unmatched"
            }
          ]
        },
        {
          "code": "58202007",
          "display": "Fruktose",
          "target": [
            {
              "equivalence": "unmatched"
            }
          ]
        },
        {
          "code": "43392006",
          "display": "Gänsefüße",
          "target": [
            {
              "equivalence": "unmatched"
            }
          ]
        },
        {
          "code": "278840001",
          "display": "Garnelen",
          "target": [
            {
              "code": "EU0002",
              "display": "Krebstiere",
              "equivalence": "subsumes"
            }
          ]
        },
        {
          "code": "28230009",
          "display": "Geflügel",
          "target": [
            {
              "equivalence": "unmatched"
            }
          ]
        },
        {
          "code": "418266005",
          "display": "gelbe Vaseline",
          "target": [
            {
              "equivalence": "unmatched"
            }
          ]
        },
        {
          "code": "80259003",
          "display": "Geschmacksverstärker in Lebensmitteln",
          "target": [
            {
              "equivalence": "unmatched"
            }
          ]
        },
        {
          "code": "23182003",
          "display": "Getreide",
          "target": [
            {
              "code": "EU0001",
              "display": "Glutenhaltiges Getreide",
              "equivalence": "subsumes"
            }
          ]
        },
        {
          "code": "260118006",
          "display": "Glaskraut-Pollen",
          "target": [
            {
              "equivalence": "unmatched"
            }
          ]
        },
        {
          "code": "430503006",
          "display": "Glutamat",
          "target": [
            {
              "equivalence": "unmatched"
            }
          ]
        },
        {
          "code": "89811004",
          "display": "Gluten",
          "target": [
            {
              "code": "EU0001",
              "display": "Glutenhaltiges Getreide",
              "equivalence": "subsumes"
            }
          ]
        },
        {
          "code": "2309006",
          "display": "Gold",
          "target": [
            {
              "equivalence": "unmatched"
            }
          ]
        },
        {
          "code": "422304003",
          "display": "Gräser (Süßgräser)",
          "target": [
            {
              "equivalence": "unmatched"
            }
          ]
        },
        {
          "code": "256277009",
          "display": "Gras-Pollen",
          "target": [
            {
              "equivalence": "unmatched"
            }
          ]
        },
        {
          "code": "412145001",
          "display": "Haarfärbemittel",
          "target": [
            {
              "equivalence": "unmatched"
            }
          ]
        },
        {
          "code": "418504009",
          "display": "Hafer",
          "target": [
            {
              "code": "EU0001",
              "display": "Glutenhaltiges Getreide",
              "equivalence": "subsumes"
            }
          ]
        },
        {
          "code": "256353000",
          "display": "Haselnüsse",
          "target": [
            {
              "code": "EU0008",
              "display": "Schalenfrüchte",
              "equivalence": "subsumes"
            }
          ]
        },
        {
          "code": "256263006",
          "display": "Hasel-Pollen",
          "target": [
            {
              "equivalence": "unmatched"
            }
          ]
        },
        {
          "code": "128488006",
          "display": "Hausstaub",
          "target": [
            {
              "equivalence": "unmatched"
            }
          ]
        },
        {
          "code": "406466009",
          "display": "Hausstaub-Allergene",
          "target": [
            {
              "equivalence": "unmatched"
            }
          ]
        },
        {
          "code": "711093001",
          "display": "Hausstaubmilben-Proteine",
          "target": [
            {
              "equivalence": "unmatched"
            }
          ]
        },
        {
          "code": "711322006",
          "display": "Helminthen (Eingeweidewürmer)-Protein",
          "target": [
            {
              "equivalence": "unmatched"
            }
          ]
        },
        {
          "code": "227444000",
          "display": "Himbeeren",
          "target": [
            {
              "equivalence": "unmatched"
            }
          ]
        },
        {
          "code": "14402002",
          "display": "Holz",
          "target": [
            {
              "equivalence": "unmatched"
            }
          ]
        },
        {
          "code": "227313005",
          "display": "Hülsenfrüchte",
          "target": [
            {
              "equivalence": "unmatched"
            }
          ]
        },
        {
          "code": "736162008",
          "display": "Hummer",
          "target": [
            {
              "code": "EU0002",
              "display": "Krebstiere",
              "equivalence": "subsumes"
            }
          ]
        },
        {
          "code": "260154005",
          "display": "Hunde-Hautschuppen",
          "target": [
            {
              "equivalence": "unmatched"
            }
          ]
        },
        {
          "code": "227400003",
          "display": "Ingwer",
          "target": [
            {
              "equivalence": "unmatched"
            }
          ]
        },
        {
          "code": "406470001",
          "display": "Insekten-Allergene",
          "target": [
            {
              "equivalence": "unmatched"
            }
          ]
        },
        {
          "code": "280939008",
          "display": "Insektengifte",
          "target": [
            {
              "equivalence": "unmatched"
            }
          ]
        },
        {
          "code": "260174003",
          "display": "Kabeljaue",
          "target": [
            {
              "code": "EU0004",
              "display": "Fische",
              "equivalence": "subsumes"
            }
          ]
        },
        {
          "code": "80237000",
          "display": "Kakaobutter",
          "target": [
            {
              "equivalence": "unmatched"
            }
          ]
        },
        {
          "code": "14241002",
          "display": "Kakerlaken",
          "target": [
            {
              "equivalence": "unmatched"
            }
          ]
        },
        {
          "code": "74774004",
          "display": "Kälteurtikaria",
          "target": [
            {
              "equivalence": "unmatched"
            }
          ]
        },
        {
          "code": "88818001",
          "display": "Kaninchen",
          "target": [
            {
              "equivalence": "unmatched"
            }
          ]
        },
        {
          "code": "412153009",
          "display": "Kaninchen-Hautschuppen",
          "target": [
            {
              "equivalence": "unmatched"
            }
          ]
        },
        {
          "code": "256319004",
          "display": "Karotten",
          "target": [
            {
              "equivalence": "unmatched"
            }
          ]
        },
        {
          "code": "735053000",
          "display": "Kartoffeln",
          "target": [
            {
              "equivalence": "unmatched"
            }
          ]
        },
        {
          "code": "102264005",
          "display": "Käse",
          "target": [
            {
              "code": "EU0007",
              "display": "Milch",
              "equivalence": "subsumes"
            }
          ]
        },
        {
          "code": "260152009",
          "display": "Katze-Hautschuppen",
          "target": [
            {
              "equivalence": "unmatched"
            }
          ]
        },
        {
          "code": "43230003",
          "display": "Kautschuk",
          "target": [
            {
              "equivalence": "unmatched"
            }
          ]
        },
        {
          "code": "735248001",
          "display": "Kirschen",
          "target": [
            {
              "equivalence": "unmatched"
            }
          ]
        },
        {
          "code": "260176001",
          "display": "Kiwi",
          "target": [
            {
              "equivalence": "unmatched"
            }
          ]
        },
        {
          "code": "57126000",
          "display": "Klebstoff",
          "target": [
            {
              "equivalence": "unmatched"
            }
          ]
        },
        {
          "code": "418920007",
          "display": "Klebstoffe",
          "target": [
            {
              "equivalence": "unmatched"
            }
          ]
        },
        {
          "code": "735030001",
          "display": "Knoblauch",
          "target": [
            {
              "equivalence": "unmatched"
            }
          ]
        },
        {
          "code": "54808007",
          "display": "Kobalt",
          "target": [
            {
              "equivalence": "unmatched"
            }
          ]
        },
        {
          "code": "735211005",
          "display": "Kokusnüsse",
          "target": [
            {
              "equivalence": "unmatched"
            }
          ]
        },
        {
          "code": "255840003",
          "display": "Kolophonium",
          "target": [
            {
              "equivalence": "unmatched"
            }
          ]
        },
        {
          "code": "51386004",
          "display": "Konservierungsmittel in Lebensmitteln",
          "target": [
            {
              "equivalence": "unmatched"
            }
          ]
        },
        {
          "code": "406473004",
          "display": "Kontakt-Allergene",
          "target": [
            {
              "equivalence": "unmatched"
            }
          ]
        },
        {
          "code": "264331002",
          "display": "Körner (Getreide, Pseudogetreide, Hülsenfrüchte, Sonnenblumen)",
          "target": [
            {
              "code": "EU0001",
              "display": "Glutenhaltiges Getreide",
              "equivalence": "subsumes"
            }
          ]
        },
        {
          "code": "289122001",
          "display": "Kosmetika",
          "target": [
            {
              "equivalence": "unmatched"
            }
          ]
        },
        {
          "code": "736159005",
          "display": "Krabben",
          "target": [
            {
              "code": "EU0002",
              "display": "Krebstiere",
              "equivalence": "subsumes"
            }
          ]
        },
        {
          "code": "227374009",
          "display": "Kräuter und Gewürze",
          "target": [
            {
              "equivalence": "unmatched"
            }
          ]
        },
        {
          "code": "421133009",
          "display": "Krustentiere",
          "target": [
            {
              "code": "EU0002",
              "display": "Krebstiere",
              "equivalence": "subsumes"
            }
          ]
        },
        {
          "code": "264295007",
          "display": "Kuhmilch-Proteine",
          "target": [
            {
              "code": "EU0007",
              "display": "Milch",
              "equivalence": "subsumes"
            }
          ]
        },
        {
          "code": "66925006",
          "display": "Kupfer",
          "target": [
            {
              "equivalence": "unmatched"
            }
          ]
        },
        {
          "code": "47703008",
          "display": "Laktose",
          "target": [
            {
              "code": "EU0007",
              "display": "Milch",
              "equivalence": "subsumes"
            }
          ]
        },
        {
          "code": "772245002",
          "display": "Lanolin-Alkohol",
          "target": [
            {
              "equivalence": "unmatched"
            }
          ]
        },
        {
          "code": "111088007",
          "display": "Latex",
          "target": [
            {
              "equivalence": "unmatched"
            }
          ]
        },
        {
          "code": "406465008",
          "display": "Lebensmittel-Allergene",
          "target": [
            {
              "equivalence": "unmatched"
            }
          ]
        },
        {
          "code": "59533004",
          "display": "Lebensmittel-Zusatzstoffe",
          "target": [
            {
              "equivalence": "unmatched"
            }
          ]
        },
        {
          "code": "19627002",
          "display": "Leder",
          "target": [
            {
              "equivalence": "unmatched"
            }
          ]
        },
        {
          "code": "115664001",
          "display": "Photoallergische Dermatitis",
          "target": [
            {
              "equivalence": "unmatched"
            }
          ]
        },
        {
          "code": "227430006",
          "display": "Limetten",
          "target": [
            {
              "equivalence": "unmatched"
            }
          ]
        },
        {
          "code": "63876004",
          "display": "Lupinen",
          "target": [
            {
              "code": "EU0013",
              "display": "Lupinen",
              "equivalence": "subsumes"
            }
          ]
        },
        {
          "code": "412357001",
          "display": "Mais",
          "target": [
            {
              "equivalence": "unmatched"
            }
          ]
        },
        {
          "code": "391737006",
          "display": "Mandelöle",
          "target": [
            {
              "code": "EU0008",
              "display": "Schalenfrüchte",
              "equivalence": "subsumes"
            }
          ]
        },
        {
          "code": "260179008",
          "display": "Mango",
          "target": [
            {
              "equivalence": "unmatched"
            }
          ]
        },
        {
          "code": "256419000",
          "display": "Maus-Epithelien",
          "target": [
            {
              "equivalence": "unmatched"
            }
          ]
        },
        {
          "code": "260156007",
          "display": "Maus-Urin-Proteine",
          "target": [
            {
              "equivalence": "unmatched"
            }
          ]
        },
        {
          "code": "44027008",
          "display": "Meeresfrüchte",
          "target": [
            {
              "code": "EU0014",
              "display": "Weichtiere",
              "equivalence": "subsumes"
            }
          ]
        },
        {
          "code": "63766005",
          "display": "Mehl",
          "target": [
            {
              "code": "EU0001",
              "display": "Glutenhaltiges Getreide",
              "equivalence": "subsumes"
            }
          ]
        },
        {
          "code": "260177005",
          "display": "Melonen",
          "target": [
            {
              "equivalence": "unmatched"
            }
          ]
        },
        {
          "code": "261243003",
          "display": "Messing",
          "target": [
            {
              "equivalence": "unmatched"
            }
          ]
        },
        {
          "code": "2799001",
          "display": "Methylbenzethoniumchlorid",
          "target": [
            {
              "equivalence": "unmatched"
            }
          ]
        },
        {
          "code": "70813002",
          "display": "Milch",
          "target": [
            {
              "code": "EU0007",
              "display": "Milch",
              "equivalence": "subsumes"
            }
          ]
        },
        {
          "code": "255667006",
          "display": "Mineralöle (Paraffinöl, Petroleum, ?)",
          "target": [
            {
              "equivalence": "unmatched"
            }
          ]
        },
        {
          "code": "226760005",
          "display": "Molkereiprodukte",
          "target": [
            {
              "code": "EU0007",
              "display": "Milch",
              "equivalence": "subsumes"
            }
          ]
        },
        {
          "code": "115589000",
          "display": "Monoethanolamin",
          "target": [
            {
              "equivalence": "unmatched"
            }
          ]
        },
        {
          "code": "736030007",
          "display": "Muscheln (Venusmuschel, ?)",
          "target": [
            {
              "code": "EU0014",
              "display": "Weichtiere",
              "equivalence": "subsumes"
            }
          ]
        },
        {
          "code": "77188000",
          "display": "Muscheln (Miesmuschel, ...)",
          "target": [
            {
              "code": "EU0014",
              "display": "Weichtiere",
              "equivalence": "subsumes"
            }
          ]
        },
        {
          "code": "735046009",
          "display": "Muskatnüsse",
          "target": [
            {
              "code": "EU0008",
              "display": "Schalenfrüchte",
              "equivalence": "subsumes"
            }
          ]
        },
        {
          "code": "412160003",
          "display": "Nahtmaterial-Allergene",
          "target": [
            {
              "equivalence": "unmatched"
            }
          ]
        },
        {
          "code": "227389000",
          "display": "Nelken",
          "target": [
            {
              "equivalence": "unmatched"
            }
          ]
        },
        {
          "code": "33396006",
          "display": "Nickel",
          "target": [
            {
              "equivalence": "unmatched"
            }
          ]
        },
        {
          "code": "13577000",
          "display": "Nüsse",
          "target": [
            {
              "code": "EU0008",
              "display": "Schalenfrüchte",
              "equivalence": "subsumes"
            }
          ]
        },
        {
          "code": "230034002",
          "display": "Nüsse und Ölsamen (Ölsaat)",
          "target": [
            {
              "code": "EU0008",
              "display": "Schalenfrüchte",
              "equivalence": "subsumes"
            }
          ]
        },
        {
          "code": "735979007",
          "display": "Oktopusse",
          "target": [
            {
              "code": "EU0014",
              "display": "Weichtiere",
              "equivalence": "subsumes"
            }
          ]
        },
        {
          "code": "260126003",
          "display": "Oliven-Pollen",
          "target": [
            {
              "equivalence": "unmatched"
            }
          ]
        },
        {
          "code": "406774009",
          "display": "Omega-3-Fettsäuren aus Fisch",
          "target": [
            {
              "code": "EU0004",
              "display": "Fische",
              "equivalence": "subsumes"
            }
          ]
        },
        {
          "code": "256306003",
          "display": "Orangen",
          "target": [
            {
              "equivalence": "unmatched"
            }
          ]
        },
        {
          "code": "712720004",
          "display": "Pappel-Pollen",
          "target": [
            {
              "equivalence": "unmatched"
            }
          ]
        },
        {
          "code": "227408005",
          "display": "Paprika",
          "target": [
            {
              "equivalence": "unmatched"
            }
          ]
        },
        {
          "code": "734881000",
          "display": "Paradeiser",
          "target": [
            {
              "equivalence": "unmatched"
            }
          ]
        },
        {
          "code": "418785009",
          "display": "Parfum",
          "target": [
            {
              "equivalence": "unmatched"
            }
          ]
        },
        {
          "code": "410853002",
          "display": "Perfluor Chemikalien",
          "target": [
            {
              "equivalence": "unmatched"
            }
          ]
        },
        {
          "code": "255842006",
          "display": "Perubalsam",
          "target": [
            {
              "equivalence": "unmatched"
            }
          ]
        },
        {
          "code": "59545008",
          "display": "Pestizide",
          "target": [
            {
              "equivalence": "unmatched"
            }
          ]
        },
        {
          "code": "412066006",
          "display": "Pfeffer",
          "target": [
            {
              "equivalence": "unmatched"
            }
          ]
        },
        {
          "code": "256417003",
          "display": "Pferde-Hautschuppen",
          "target": [
            {
              "equivalence": "unmatched"
            }
          ]
        },
        {
          "code": "735049002",
          "display": "Pfirsich",
          "target": [
            {
              "equivalence": "unmatched"
            }
          ]
        },
        {
          "code": "116637007",
          "display": "Pilz-Antigene (Einzellige Pilze)",
          "target": [
            {
              "equivalence": "unmatched"
            }
          ]
        },
        {
          "code": "735045008",
          "display": "Pilze (Speise- und Giftpilze)",
          "target": [
            {
              "equivalence": "unmatched"
            }
          ]
        },
        {
          "code": "227511008",
          "display": "Pinienkerne",
          "target": [
            {
              "equivalence": "unmatched"
            }
          ]
        },
        {
          "code": "227512001",
          "display": "Pistazien",
          "target": [
            {
              "code": "EU0008",
              "display": "Schalenfrüchte",
              "equivalence": "subsumes"
            }
          ]
        },
        {
          "code": "387398009",
          "display": "Podophyllum Harze",
          "target": [
            {
              "equivalence": "unmatched"
            }
          ]
        },
        {
          "code": "256259004",
          "display": "Pollen",
          "target": [
            {
              "equivalence": "unmatched"
            }
          ]
        },
        {
          "code": "256504004",
          "display": "Polykarbonat (Zahnärztlicher Werkstoff)",
          "target": [
            {
              "equivalence": "unmatched"
            }
          ]
        },
        {
          "code": "83619009",
          "display": "Polyvinylalkohol",
          "target": [
            {
              "equivalence": "unmatched"
            }
          ]
        },
        {
          "code": "255970007",
          "display": "Propolis",
          "target": [
            {
              "equivalence": "unmatched"
            }
          ]
        },
        {
          "code": "311846002",
          "display": "Pyrethroid-Insektizide",
          "target": [
            {
              "equivalence": "unmatched"
            }
          ]
        },
        {
          "code": "45262002",
          "display": "Quecksilber",
          "target": [
            {
              "equivalence": "unmatched"
            }
          ]
        },
        {
          "code": "67324005",
          "display": "Reis",
          "target": [
            {
              "equivalence": "unmatched"
            }
          ]
        },
        {
          "code": "260153004",
          "display": "Rinder-Hautschuppen",
          "target": [
            {
              "equivalence": "unmatched"
            }
          ]
        },
        {
          "code": "412068007",
          "display": "Roggen",
          "target": [
            {
              "code": "EU0001",
              "display": "Glutenhaltiges Getreide",
              "equivalence": "subsumes"
            }
          ]
        },
        {
          "code": "226915003",
          "display": "rotes Fleisch",
          "target": [
            {
              "equivalence": "unmatched"
            }
          ]
        },
        {
          "code": "264337003",
          "display": "Samen",
          "target": [
            {
              "equivalence": "unmatched"
            }
          ]
        },
        {
          "code": "128489003",
          "display": "Sand",
          "target": [
            {
              "equivalence": "unmatched"
            }
          ]
        },
        {
          "code": "726764009",
          "display": "Saubohnen",
          "target": [
            {
              "equivalence": "unmatched"
            }
          ]
        },
        {
          "code": "735029006",
          "display": "Schalentiere",
          "target": [
            {
              "code": "EU0014",
              "display": "Weichtiere",
              "equivalence": "subsumes"
            }
          ]
        },
        {
          "code": "722071008",
          "display": "Schimmelpilz-Antigene",
          "target": [
            {
              "equivalence": "unmatched"
            }
          ]
        },
        {
          "code": "15838006",
          "display": "Schnecken",
          "target": [
            {
              "code": "EU0014",
              "display": "Weichtiere",
              "equivalence": "subsumes"
            }
          ]
        },
        {
          "code": "102262009",
          "display": "Schokolade",
          "target": [
            {
              "equivalence": "unmatched"
            }
          ]
        },
        {
          "code": "226934003",
          "display": "Schweinefleisch",
          "target": [
            {
              "equivalence": "unmatched"
            }
          ]
        },
        {
          "code": "412156001",
          "display": "Seide",
          "target": [
            {
              "equivalence": "unmatched"
            }
          ]
        },
        {
          "code": "14423008",
          "display": "Selbstklebende Bandagen",
          "target": [
            {
              "equivalence": "unmatched"
            }
          ]
        },
        {
          "code": "256326004",
          "display": "Sellerie",
          "target": [
            {
              "code": "EU0009",
              "display": "Sellerie",
              "equivalence": "subsumes"
            }
          ]
        },
        {
          "code": "51905005",
          "display": "Senf",
          "target": [
            {
              "code": "EU0010",
              "display": "Senf",
              "equivalence": "subsumes"
            }
          ]
        },
        {
          "code": "260167008",
          "display": "Sesam-Samen",
          "target": [
            {
              "code": "EU0011",
              "display": "Sesamsamen",
              "equivalence": "subsumes"
            }
          ]
        },
        {
          "code": "41967008",
          "display": "Silber",
          "target": [
            {
              "equivalence": "unmatched"
            }
          ]
        },
        {
          "code": "13652007",
          "display": "Silikon",
          "target": [
            {
              "equivalence": "unmatched"
            }
          ]
        },
        {
          "code": "303314008",
          "display": "Skorpiongifte",
          "target": [
            {
              "equivalence": "unmatched"
            }
          ]
        },
        {
          "code": "256355007",
          "display": "Sojabohnen",
          "target": [
            {
              "code": "EU0006",
              "display": "Sojabohnen",
              "equivalence": "subsumes"
            }
          ]
        },
        {
          "code": "7791007",
          "display": "Sojaproteine",
          "target": [
            {
              "code": "EU0006",
              "display": "Sojabohnen",
              "equivalence": "subsumes"
            }
          ]
        },
        {
          "code": "734846002",
          "display": "Sperma",
          "target": [
            {
              "equivalence": "unmatched"
            }
          ]
        },
        {
          "code": "303315009",
          "display": "Spinnengifte",
          "target": [
            {
              "equivalence": "unmatched"
            }
          ]
        },
        {
          "code": "227259009",
          "display": "Spitzwegerich",
          "target": [
            {
              "equivalence": "unmatched"
            }
          ]
        },
        {
          "code": "33008008",
          "display": "Staub",
          "target": [
            {
              "equivalence": "unmatched"
            }
          ]
        },
        {
          "code": "767406000",
          "display": "Sulfite und Sulfitderivate",
          "target": [
            {
              "equivalence": "unmatched"
            }
          ]
        },
        {
          "code": "415710007",
          "display": "Terpene",
          "target": [
            {
              "equivalence": "unmatched"
            }
          ]
        },
        {
          "code": "256245006",
          "display": "Textilien",
          "target": [
            {
              "equivalence": "unmatched"
            }
          ]
        },
        {
          "code": "227144008",
          "display": "Thunfische",
          "target": [
            {
              "code": "EU0004",
              "display": "Fische",
              "equivalence": "subsumes"
            }
          ]
        },
        {
          "code": "406472009",
          "display": "Tierepithelien",
          "target": [
            {
              "equivalence": "unmatched"
            }
          ]
        },
        {
          "code": "276310004",
          "display": "Tierhaare",
          "target": [
            {
              "equivalence": "unmatched"
            }
          ]
        },
        {
          "code": "264287008",
          "display": "Tier-Hautschuppen",
          "target": [
            {
              "equivalence": "unmatched"
            }
          ]
        },
        {
          "code": "735006003",
          "display": "Kalmare",
          "target": [
            {
              "code": "EU0014",
              "display": "Weichtiere",
              "equivalence": "subsumes"
            }
          ]
        },
        {
          "code": "38946001",
          "display": "Tintenfische",
          "target": [
            {
              "code": "EU0014",
              "display": "Weichtiere",
              "equivalence": "subsumes"
            }
          ]
        },
        {
          "code": "419604006",
          "display": "Unkräuter-Pollen (Kamille, Chrysanthemen, Löwenzahn, Japanischer Hopfen, Lupine, Margerite, Raps)",
          "target": [
            {
              "equivalence": "unmatched"
            }
          ]
        },
        {
          "code": "412070003",
          "display": "Vanille",
          "target": [
            {
              "equivalence": "unmatched"
            }
          ]
        },
        {
          "code": "256352005",
          "display": "Walnüsse",
          "target": [
            {
              "code": "EU0008",
              "display": "Schalenfrüchte",
              "equivalence": "subsumes"
            }
          ]
        },
        {
          "code": "419420009",
          "display": "Wassermelonen",
          "target": [
            {
              "equivalence": "unmatched"
            }
          ]
        },
        {
          "code": "419633007",
          "display": "weiße Vaseline",
          "target": [
            {
              "equivalence": "unmatched"
            }
          ]
        },
        {
          "code": "412071004",
          "display": "Weizen",
          "target": [
            {
              "code": "EU0001",
              "display": "Glutenhaltiges Getreide",
              "equivalence": "subsumes"
            }
          ]
        },
        {
          "code": "256440004",
          "display": "Wespengifte",
          "target": [
            {
              "equivalence": "unmatched"
            }
          ]
        },
        {
          "code": "412161004",
          "display": "Wolle",
          "target": [
            {
              "equivalence": "unmatched"
            }
          ]
        },
        {
          "code": "42416001",
          "display": "Wollfett",
          "target": [
            {
              "equivalence": "unmatched"
            }
          ]
        },
        {
          "code": "59334006",
          "display": "Zement",
          "target": [
            {
              "equivalence": "unmatched"
            }
          ]
        },
        {
          "code": "227388008",
          "display": "Zimt",
          "target": [
            {
              "equivalence": "unmatched"
            }
          ]
        },
        {
          "code": "735340006",
          "display": "Zitronen",
          "target": [
            {
              "equivalence": "unmatched"
            }
          ]
        },
        {
          "code": "102259006",
          "display": "Zitrusfrüchte",
          "target": [
            {
              "equivalence": "unmatched"
            }
          ]
        },
        {
          "code": "735047000",
          "display": "Zwiebeln",
          "target": [
            {
              "equivalence": "unmatched"
            }
          ]
        },
        {
          "code": "289949002",
          "display": "Zypressen-Pollen",
          "target": [
            {
              "equivalence": "unmatched"
            }
          ]
        }
      ]
    }
  ]
}